…
    ## ── Conflicts ───────────────────────────────────────────────── tidyverse_conflicts() ──
    ## ✖ dplyr::filter() masks stats::filter()
    ## ✖ dplyr::lag()    masks stats::lag()

``` r
library(googlesheets)
```

Download query spreadsheet:

``` r
(my_sheets <- gs_ls())
```

    ## # A tibble: 42 x 10
    ##    sheet_title  author perm  version updated             sheet_key ws_feed
    ##    <chr>        <chr>  <chr> <chr>   <dttm>              <chr>     <chr>  
    ##  1 Pre-course … "    … rw    new     2018-03-18 18:14:38 13ukx0z0… https:…
    ##  2 Tour de Rõu… "    … r     new     2018-03-18 10:27:05 1OR1g2lu… https:…
    ##  3 "          … sande… r     new     2018-03-12 07:10:16 14wc18fo… https:…
    ##  4 Registered … "   c… r     new     2018-02-08 15:56:28 1gDk6bQL… https:…
    ##  5 "  check_pu… "    … rw    new     2018-01-24 14:57:12 1QU_1Qwy… https:…
    ##  6 Moving Pict… "    … r     new     2018-01-11 22:29:41 149386JU… https:…
    ##  7 Sütemetsa 8… "  ti… r     new     2017-11-03 06:21:32 1RuNZBBB… https:…
    ##  8 Alasniidu N… "    … rw    new     2017-11-02 12:11:33 1kX-p8Bc… https:…
    ##  9 Haanja100 M… "    … r     new     2017-10-03 08:29:42 15TmC7IK… https:…
    ## 10 " testdatas… "    … rw    new     2017-09-13 10:24:46 1IOzPyBp… https:…
    ## # ... with 32 more rows, and 3 more variables: alternate <chr>,
    ## #   self <chr>, alt_key <chr>
…
